com/sample/publisher/kafka/publisher/EventPublisher$ListenableFutureCallbackLogger.class
com/sample/publisher/mapper/SamplePayloadMapper.class
com/sample/publisher/dto/SamplePayloadDTO$SamplePayloadDTOBuilder.class
com/sample/publisher/kafka/publisher/EventPublisher.class
com/sample/publisher/config/KafkaProperties.class
com/sample/publisher/mapper/SamplePayloadMapperImpl.class
com/sample/publisher/data/SamplePayload.class
com/sample/publisher/SamplePublisherApplication.class
com/sample/publisher/PayloadService.class
com/sample/publisher/data/KafkaEvent$KafkaEventBuilder.class
com/sample/publisher/data/KafkaEvent.class
com/sample/publisher/data/SamplePayload$SamplePayloadBuilder.class
com/sample/publisher/config/KafkaConfig.class
com/sample/publisher/controller/PayloadController.class
com/sample/publisher/dto/SamplePayloadDTO.class
